%YAML 1.1
%TAG !u! tag:unity3d.com,2011:
--- !u!1045 &1
EditorBuildSettings:
  m_ObjectHideFlags: 0
  serializedVersion: 2
  m_Scenes:
  - enabled: 1
    path: Assets/Scenes/GameStartMenu.unity
    guid: 98fb4ac209a9b804588711c08c7d27a8
  - enabled: 1
    path: Assets/Scenes/StrategicLayer.unity
    guid: 9fc0d4010bbf28b4594072e72b8655ab
  - enabled: 1
    path: Assets/Scenes/GameOver.unity
    guid: e1e86f7937df36f49ba3d124d17526a7
  m_configObjects: {}
